{
	"Mo_N": "BDCKUMAM-XSS40A",
	"RF_In": "11.7 - 12.75",
	"IF_Out": "950.0 - 2000.0",
	"LO": "10.75",
	"Volt": "12-24",
	"Flange_In": "SMA Female",
	"Output_Con": "SMA Female",
	"Desense": "<0.1",
	"DUT_Size": "132x47x47",
	"Weight": "590",
	"NF_Spec": "10",
	"Gain_Spec": "40",
	"Spur_Spec": "-40",
	"ImRej_Spec": "-40",
	"LoIn_Spec": "-45",
	"LoOut_Spec": "-45",
	"P1dB_Spec": "7",
	"OIP3_Spec": "17",
	"Current_Spec": "300",
	"S11_Spec": "2:1",
	"S22_Spec": "1.5:1",
	"P10_Spec": "-32",
	"P100_Spec": "-62",
	"P1K_Spec": "-72",
	"P10K_Spec": "-82",
	"P100K_Spec": "-92",
	"P1M_Spec": "-102",
	"Per_10M": "+/- 0.5",
	"Per_120M": "+/- 1",
	"Per_1G": "+/- 2.5",
	"Note_1": "",
	"Note_2": "",
	"Note_3": "",
	"Voltage": "17",
	"Spe1": "",
	"Spe2": "",
	"SpN1": "",
	"SpN2": "",
	"Per_500M": "+/- 1.5"
}