{
	"Mo_N": "LNBKAMM-XIWN60A-GCS-W",
	"RF_In": "19.2 - 20.2",
	"IF_Out": "1000.0 - 2000.0",
	"LO": "18.20",
	"Volt": "15 - 26",
	"Flange_In": "WR-42",
	"Output_Con": "SMA Type (f)",
	"Desense": "<0.1",
	"DUT_Size": "145x44x44",
	"Weight": "<500",
	"NF_Spec": "1.3",
	"Gain_Spec": "55-65",
	"Spur_Spec": "-60",
	"ImRej_Spec": "-40",
	"LoIn_Spec": "-45",
	"LoOut_Spec": "-45",
	"P1dB_Spec": "15",
	"OIP3_Spec": "20",
	"Current_Spec": "250",
	"S11_Spec": "1.5:1",
	"S22_Spec": "2:1",
	"P10_Spec": "-32",
	"P100_Spec": "-62",
	"P1K_Spec": "-72",
	"P10K_Spec": "-82",
	"P100K_Spec": "-92",
	"P1M_Spec": "-102",
	"Per_10M": "+/- 0.15",
	"Per_120M": "+/- 1",
	"Per_1G": "+/- 1.5",
	"Note_1": "",
	"Note_2": "",
	"Note_3": "",
	"Voltage": "18",
	"Spe1": "",
	"Spe2": "",
	"SpN1": "",
	"SpN2": "",
	"Per_500M": "+/- 1.5"
}